CYCLE 17E6:  CUTOFF SCORES,,,,
,,,,
PROM,NBR,NBR,PROM,PROM
AFSC,ELIG,SEL,OPP,CUTOFF
00XXX,205,57,27.80,353.00
00XXXX,482,164,34.02,352.00
1A0X1,65,28,43.08,358.00
1A1X1,114,32,28.07,356.00
1A2X1,252,81,32.14,362.00
1A3X1,189,61,32.28,351.00
1A6X1,37,11,29.73,344.00
1A8X1,144,66,45.83,357.00
1A8X2,43,16,37.21,364.00
1A9X1,124,37,29.84,355.00
1B4X1,153,62,40.52,347.00
1C0X2,147,48,32.65,337.00
1C1X1,188,69,36.70,341.00
1C2X1,66,33,50.00,333.00
1C3X1,158,60,37.97,340.00
1C4X1,168,50,29.76,356.00
1C5X1,93,39,41.94,337.00
1C6X1,100,41,41.00,333.00
1C7X1,74,30,40.54,329.00
1C8X1,43,17,39.53,336.00
1C8X2,91,26,28.57,353.00
1N0X1,317,135,42.59,338.65
1N1X1A,366,98,26.78,361.00
1N1X1B,42,15,35.71,353.00
1N2X1A,63,27,42.86,342.00
1N2X1C,103,46,44.66,326.00
1N3X1,252,88,34.92,354.00
1N4X1A,100,38,38.00,345.00
1N4X1B,155,72,46.45,339.00
1N7X1,6,2,33.33,362.00
1P0X1,174,58,33.33,332.00
1S0X1,31,12,38.71,336.00
1T0X1,71,23,32.39,347.00
1T2X1,67,32,47.76,345.00
1U0X1,118,42,35.59,366.00
1W0X1,247,82,33.20,338.67
1W0X2,12,5,41.67,330.00
2A0X1K,48,13,27.08,341.00
2A0X1M,43,13,30.23,345.00
2A0X1P,55,15,27.27,350.00
2A2X1,85,24,28.24,353.00
2A2X2,46,13,28.26,353.00
2A2X3,37,12,32.43,343.00
2A3X3,447,156,34.90,341.00
2A3X4,168,52,30.95,341.00
2A3X5,108,46,42.59,341.00
2A3X7,125,57,45.60,330.00
2A3X8,31,18,58.06,325.00
2A5X1,605,201,33.22,335.00
2A5X2,89,41,46.07,333.00
2A5X4,362,132,36.46,333.00
2A6X1G,437,123,28.15,339.00
2A6X1H,138,38,27.54,336.00
2A6X2,363,102,28.10,339.00
2A6X3,66,22,33.33,332.00
2A6X4,187,61,32.62,332.00
2A6X5,229,62,27.07,342.00
2A6X6,365,118,32.33,333.00
2A7X1,89,30,33.71,341.00
2A7X2,67,24,35.82,335.00
2A7X3,266,77,28.95,340.00
2A7X5,115,34,29.57,335.00
2A8X1E,103,36,34.95,334.00
2A8X1J,27,16,59.26,328.00
2A8X2E,74,23,31.08,320.00
2A8X2J,38,16,42.11,319.00
2A9X1,58,19,32.76,336.00
2A9X2,36,13,36.11,341.00
2A9X3,101,36,35.64,336.00
2F0X1,314,85,27.07,339.63
2G0X1,52,21,40.38,334.63
2M0X1,64,22,34.38,347.00
2M0X2,47,16,34.04,334.00
2M0X3,42,14,33.33,346.00
2P0X1,87,27,31.03,352.00
2R0X1,45,19,42.22,330.00
2R1X1,62,24,38.71,327.00
2S0X1,584,187,32.02,340.00
2T0X1,158,45,28.48,342.00
2T1X1,215,62,28.84,348.00
2T2X1,522,150,28.74,346.00
2T3X1,302,85,28.15,344.74
2T3X7,47,13,27.66,343.00
2W0X1,640,173,27.03,346.67
2W1X1,580,176,30.34,343.87
2W2X1,56,23,41.07,333.67
3A1X1,481,152,31.60,332.00
3D0X1,85,29,34.12,341.00
3D0X2,533,164,30.77,352.00
3D0X3,143,57,39.86,350.00
3D0X4,51,17,33.33,345.00
3D1X1,445,124,27.87,347.00
3D1X2,540,182,33.70,339.00
3D1X3,422,135,31.99,343.00
3D1X4,16,6,37.50,344.00
3D1X7,63,19,30.16,346.00
3E0X1,144,52,36.11,342.00
3E0X2,137,41,29.93,344.00
3E1X1,137,46,33.58,339.00
3E2X1,176,53,30.11,341.00
3E3X1,179,49,27.37,345.00
3E4X1,169,48,28.40,349.00
3E4X3,18,7,38.89,337.00
3E5X1,85,32,37.65,345.00
3E6X1,62,20,32.26,352.00
3E7X1,267,70,26.22,342.00
3E8X1,180,47,26.11,368.00
3E9X1,65,21,32.31,346.00
3M0X1,298,84,28.19,342.00
3N0X2,43,19,44.19,352.00
3N0X5,74,31,41.89,346.00
3N1X1,50,13,26.00,376.00
3P0X1,2136,586,27.43,345.64
3S0X1,475,164,34.53,331.70
3S1X1,14,5,35.71,348.77
3S2X1,103,34,33.01,347.00
3S3X3,40,18,45.00,350.00
4A0X1,343,90,26.24,337.07
4A1X1,114,36,31.58,342.00
4A2X1,67,21,31.34,350.00
4B0X1,95,29,30.53,352.00
4C0X1,71,25,35.21,338.00
4D0X1,19,7,36.84,339.00
4E0X1,135,36,26.67,351.72
4H0X1,30,10,33.33,332.00
4J0X2,32,13,40.63,329.00
4J0X2A,1,1,100.00,382.00
4M0X1,24,11,45.83,335.00
4N0X1,659,185,28.07,342.00
4N0X1B,9,3,33.33,345.00
4N0X1C,73,25,34.25,342.00
4N0X1F,103,25,24.27,339.00
4N1X1,30,13,43.33,330.00
4N1X1B,5,2,40.00,328.00
4N1X1C,23,7,30.43,329.00
4N1X1D,9,3,33.33,330.00
4P0X1,82,28,34.15,340.00
4R0X1,51,18,35.29,342.00
4R0X1A,8,2,25.00,357.00
4R0X1B,17,6,35.29,348.00
4R0X1C,7,4,57.14,321.00
4T0X1,110,33,30.00,336.00
4T0X2,10,3,30.00,365.00
4V0X1,29,9,31.03,341.00
4Y0X1,213,53,24.88,338.76
4Y0X2,36,12,33.33,340.00
5J0X1,85,32,37.65,342.00
5R0X1,60,17,28.33,344.00
6C0X1,139,58,41.73,348.00
6F0X1,163,67,41.10,342.00
7S0X1,63,29,46.03,331.00
8A200,14,5,35.71,374.00
8A300,10,3,30.00,337.00
8B000,4,2,50.00,351.00
8B100,160,51,31.88,358.00
8G000,17,6,35.29,352.00
8G100,7,2,28.57,359.00
8H000,100,29,29.00,354.00
8M000,1,1,100.00,374.00
8P000,28,9,32.14,356.00
8P100,3,1,33.33,378.00
8R000,508,153,30.12,354.00
8S000,46,18,39.13,343.00
8T000,106,30,28.30,365.00
8U000,34,9,26.47,359.00
9L000,15,5,33.33,353.00
9S100,68,17,25.00,362.00
